{
    "list": [
        {"key": "bigfoot_card", "alias": ["bigfoot card", "bear card", "bigfoot"], "type": "card", "tier": 1},

        {"key": "feather", "alias": ["feather"], "type": "normal", "tier": 1},
        {"key": "rotten_bandage", "alias": ["rotten bandage", "rotten", "bandage"], "type": "normal", "tier": 1},
        {"key": "memento", "alias": ["memento"], "type": "normal", "tier": 1},
        {"key": "garlet", "alias": ["garlet", "violet gem", "purple gem"], "type": "normal", "tier": 1},
        {"key": "sticky_mucus", "alias": ["sticky mucus", "sticky", "mucus", "muscus"], "type": "normal", "tier": 1},
        {"key": "scell", "alias": ["scell", "yellow jelly"], "type": "normal", "tier": 1},
        {"key": "gold_sand", "alias": ["gold sand", "sand", "golden sand", "g sand"], "type": "normal", "tier": 1},
        {"key": "hard_skin", "alias": ["hard skin", "solid shell"], "type": "normal", "tier": 1},
        {"key": "immortal_heart", "alias": ["immortal heart", "heart"], "type": "normal", "tier": 1},
        {"key": "mercury", "alias": ["mercury", "black liquid"], "type": "normal", "tier": 1},
        {"key": "evil_horn", "alias": ["evil horn", "horn", "goat", "goat horn"], "type": "normal", "tier": 1},
        {"key": "zargon", "alias": ["zargon", "green bead", "green crystal"], "type": "normal", "tier": 1},
        {"key": "glass_bead", "alias": ["glass bead"], "type": "normal", "tier": 1},
        {"key": "skel_bone", "alias": ["skel bone", "skeleton", "bone", "skel"], "type": "normal", "tier": 1},
        {"key": "abyss_flower", "alias": ["abyss flower", "illusion flower"], "type": "normal", "tier": 1},
        {"key": "necklace_of_wisdom", "alias": ["necklace of wisdom", "wisdom necklace", "wisdom"], "type": "normal", "tier": 1},
        {"key": "brigan", "alias": ["brigan", "red stone"], "type": "normal", "tier": 1},
        {"key": "hand_of_god", "alias": ["hand of god", "god hand"], "type": "normal", "tier": 1},
        {"key": "armor_shard", "alias": ["armor shard"], "type": "normal", "tier": 1},
        {"key": "necklace_of_oblivion", "alias": ["necklace of oblivion", "oblivion necklace", "oblivion"], "type": "normal", "tier": 1},
        {"key": "cyfar", "alias": ["cyfar"], "type": "normal", "tier": 1},
        {"key": "temporal_crystal", "alias": ["temporal crystal", "crystal of time", "time crystal"], "type": "normal", "tier": 1},
        {"key": "glitter_shell", "alias": ["glitter shell", "glitter"], "type": "normal", "tier": 1},
        {"key": "witch_star_dust", "alias": ["witch star dust", "witch dust", "star dust", "stardust"], "type": "normal", "tier": 1},
        {"key": "crystal_bone", "alias": ["crystal bone"], "type": "normal", "tier": 1},
        {"key": "ice_cube", "alias": ["ice cube", "ice cubic"], "type": "normal", "tier": 1},
        {"key": "frozen_heart", "alias": ["frozen heart", "glacial heart", "froze heart"], "type": "normal", "tier": 1},
        {"key": "box_wrapper", "alias": ["box wrapper", "wrapper", "wraper"], "type": "normal", "tier": 1},
        {"key": "christmas_garland", "alias": ["christmas garland", "christmas wreath", "xmas garland", "xmas wreath"], "type": "normal", "tier": 1},
        {"key": "burning_hair", "alias": ["burning hair"], "type": "normal", "tier": 1},
        {"key": "fire_crystal", "alias": ["fire crystal", "fire gem"], "type": "normal", "tier": 1},
        {"key": "harpys_feather", "alias": ["harpys feather", "harpy feather", "harpy"], "type": "normal", "tier": 1},
        {"key": "burning_heart", "alias": ["burning heart", "burn heart"], "type": "normal", "tier": 1},
        {"key": "black_veil", "alias": ["black veil"], "type": "normal", "tier": 1},
        {"key": "rotting_rope", "alias": ["rotting rope", "rotten rope", "rot rope"], "type": "normal", "tier": 1},
        {"key": "emperium", "alias": ["emperium", "emp"], "type": "emperium", "tier": 0},
        {"key": "antenna", "alias": ["antenna", "feeler"], "type": "boss", "tier": 0},
        {"key": "bell", "alias": ["bell"], "type": "boss", "tier": 0},
        {"key": "biotite", "alias": ["biotite"], "type": "boss", "tier": 0},
        {"key": "bloody_rune", "alias": ["bloody rune", "bloody"], "type": "boss", "tier": 0},
        {"key": "crystal_mirror", "alias": ["crystal mirror"], "type": "boss", "tier": 0},
        {"key": "cursed_ruby", "alias": ["cursed ruby", "curse ruby"], "type": "boss", "tier": 0},
        {"key": "dragon_scale", "alias": ["dragon scale"], "type": "boss", "tier": 0},
        {"key": "fabric", "alias": ["fabric", "transparent cloth"], "type": "boss", "tier": 0},
        {"key": "fang_of_garm", "alias": ["fang of garm", "garm fang", "garm"], "type": "boss", "tier": 0},
        {"key": "four_leaf_clover", "alias": ["four leaf clover", "four leaf", "clover", "four leaves"], "type": "boss", "tier": 0},
        {"key": "heroic_emblem", "alias": ["heroic emblem", "hero emblem"], "type": "boss", "tier": 0},
        {"key": "ice_powder", "alias": ["ice powder"], "type": "boss", "tier": 0},
        {"key": "key_of_clock_tower", "alias": ["key of clock tower", "clock key", "clocktower key", "key of clocktower", "button of time"], "type": "boss", "tier": 0},
        {"key": "light_granule", "alias": ["light granule"], "type": "boss", "tier": 0},
        {"key": "orc_claw", "alias": ["orc claw", "eddga claw", "tiger claw", "wolf boss claw"], "type": "boss", "tier": 0},
        {"key": "parts", "alias": ["parts", "part", "screw"], "type": "boss", "tier": 0},
        {"key": "pearl", "alias": ["pearl"], "type": "boss", "tier": 0},
        {"key": "raccoon_leaf", "alias": ["raccoon leaf", "raccoon"], "type": "boss", "tier": 0},
        {"key": "red_ribbon", "alias": ["red ribbon"], "type": "boss", "tier": 0},
        {"key": "rose_quartz", "alias": ["rose quartz", "rose crystal", "pink crystal"], "type": "boss", "tier": 0},
        {"key": "soft_feather", "alias": ["soft feather", "boss feather"], "type": "boss", "tier": 0},
        {"key": "star_crumb", "alias": ["star crumb"], "type": "boss", "tier": 0},
        {"key": "time_twister", "alias": ["time twister", "time"], "type": "boss", "tier": 0},
        {"key": "wrapping_lace", "alias": ["wrapping lace"], "type": "boss", "tier": 0},
        {"key": "fiery_ember", "alias": ["fiery ember", "fire ember", "red ember", "flame ember"], "type": "boss", "tier": 0},
        {"key": "shining_holy_water", "alias": ["shining holy water", "holy water", "holywater", "arc angel", "arcangel", "shining", "holy"], "type": "boss", "tier": 0},
        {"key": "fire_arrow", "alias": ["fire arrow"], "type": "npc", "tier": 1, "price": 6,
            "increment": [5000, 7000, 10000, 15000, 20000]},
        {"key": "red_potion", "alias": ["red potion", "red pot"], "type": "npc", "tier": 1, "price": 50,
            "increment": [600,840,1200,1800,2400]},
        {"key": "fly_wing", "alias": ["fly wing", "flywing", "fly"], "type": "npc", "tier": 1, "price": 100,
            "increment": [300,420,600,900,1200]},
        {"key": "yellow_potion", "alias": ["yellow potion", "yellow pot", "y pot"], "type": "npc", "tier": 1, "price": 200,
            "increment": [150,210,300,450,600]},
        {"key": "giant_fly_wing", "alias": ["giant fly wing", "giant flywing"], "type": "npc", "tier": 1, "price": 250,
            "increment": [120,168,240,360,480]},
        {"key": "poison_bottle", "alias": ["poison bottle", "poison"], "type": "npc", "tier": 1, "price": 500,
            "increment": [60,84,120,180,240]},
        {"key": "magic_trick_wand", "alias": ["magic trick wand - poring", "magic trick", "magic wand", "magic trick wand poring",
            "poring wand", "toy wand"], "type": "npc", "tier": 1, "price": 500,
            "increment": [60,84,120,180,240]},
        {"key": "magic_trick_wand", "alias": ["magic trick wand - marin", "magic trick", "magic wand", "magic trick wand marin",
            "marin wand", "wand", "toy wand"], "type": "npc", "tier": 1, "price": 1000,
            "increment": [30,42,60,90,120]},
        {"key": "i_like_you", "alias": ["i like you", "like you", "love you", "like u", "i like u", "love u", "i love you",
            "lov u", "lov you", "i lov u", "i lov you", "luv u", "luv you", "i luv u", "i luv you"], "type": "npc", "tier": 1, "price": 500,
            "increment": [60,84,120,180,240]},
        {"key": "white_potion", "alias": ["white potion", "white pot"], "type": "npc", "tier": 1, "price": 500,
            "increment": [60,84,120,180,240]},
        {"key": "black_gemstone", "alias": ["black gemstone", "black gem", "black stone", "black g"], "type": "npc", "tier": 1, "price": 800,
            "increment": [37,52,74,111,148]},
        {"key": "panacea", "alias": ["panacea", "remedy"], "type": "npc", "tier": 1, "price": 1000,
            "increment": [30,42,60,90,120]},
        {"key": "giant_butterfly_wing", "alias": ["giant butterfly wing", "giant butterfly"], "type": "npc", "tier": 1, "price": 1250,
            "increment": [24,34,48,72,96]},
        {"key": "ga_ga_ga", "alias": ["ga ga ga", "ga ga", "ga", "gaga", "gagaga", "ga ga ga!", "gaga!", "gagaga!"], "type": "npc", "tier": 1, "price": 2000,
            "increment": [15,21,30,45,60]},
        {"key": "yggdrasil_leaf", "alias": ["yggdrasil leaf", "yggdra leaf", "yggdra", "ygdra", "igdra"], "type": "npc", "tier": 1, "price": 2000,
            "increment": [15,21,30,45,60]},
        {"key": "disguising_scroll", "alias": ["disguising scroll", "disguise scroll", "disguise", "disguising"], "type": "npc", "tier": 1, "price": 2000,
            "increment": [15,21,30,45,60]},
        {"key": "fooling_laser_gun", "alias": ["fooling laser gun", "fool", "fooling", "laser gun", "laser beam", "laser"], "type": "npc", "tier": 1, "price": 3000,
            "increment": [10,14,20,30,40]},
        {"key": "eva", "alias": ["eva", "doll", "gild doll"], "type": "npc", "tier": 1, "price": 4000,
            "increment": [7,10,14,21,28]},
        {"key": "absolute_field", "alias": ["absolute field", "absolute", "abs", "absolute heart", "heart toy"], "type": "npc", "tier": 1, "price": 4000,
            "increment": [7,10,14,21,28]},
        {"key": "music_disc", "alias": ["music disc", "music", "disc", "disk", "music disk"], "type": "npc", "tier": 1, "price": 10000,
            "increment": [3,4,6,9,12]},
        {"key": "neutralizer", "alias": ["neutralizer", "dye liquid", "neutral", "dye color", "color mixer", "mixer"], "type": "npc", "tier": 1, "price": 28000,
            "increment": [1,1,2,3,4]},
        {"key": "butterfly_wing", "alias": ["butterfly wing", "butterfly"], "type": "npc", "tier": 1, "price": 500,
            "increment": [60,84,120,180,240]},
        {"key": "blue_gemstone", "alias": ["blue gemstone", "blue gem"], "type": "npc", "tier": 1, "price": 500,
            "increment": [60,84,120,180,240]},
        {"key": "blue_potion", "alias": ["blue potion", "blue pot"], "type": "npc", "tier": 1, "price": 250,
            "increment": [120,168,240,360,480]},
        {"key": "sixth_sense_potion", "alias": ["sixth sense potion", "sixth sense", "six sense"], "type": "npc", "tier": 1, "price": 1000,
            "increment": [30,42,60,90,120]},
        {"key": "orange_potion", "alias": ["orange potion", "orange pot", "y pot"], "type": "npc", "tier": 1, "price": 100,
            "increment": [300,420,600,900,1200]}
    ],
    "incr": [
        [25, 35, 50, 75, 100],
        [30, 42, 60, 90, 120],
        [35, 49, 70, 105, 140],
        [42, 59, 84, 126, 168]
    ]
}
