{
    "list": ["jellopy", "feather", "iron", "rotten_bandage", "steel", "memento",
        "garlet", "sticky_mucus", "coal", "scell", "gold_sand", "hard_skin",
        "immortal_heart", "mercury", "evil_horn", "zargon", "glass_bead",
        "skel_bone", "abyss_flower", "necklace_of_wisdom", "brigan", "hand_of_god",
        "armor_shard", "necklace_of_oblivion", "cyfar", "temporal_crystal",
        "glitter_shell", "witch_star_dust", "crystal_bone", "ice_cube", "frozen_heart",
        "box_wrapper", "christmas_garland", "burning_hair", "fire_crystal",
        "harpys_feather", "burning_heart"]
}
